// Jest Snapshot v1, https://goo.gl/fbAQLP

exports[`PokemonPicture debe hacer match con el snapshot 1`] = `<div class="pokemon-container"><img src="https://raw.githubusercontent.com/PokeAPI/sprites/master/sprites/pokemon/other/dream-world/56.svg" class="hidden-pokemon"></div>`;
